^C:\USERS\TOMER\SOURCE\REPOS\DATA_STRUCTURES_TASK\DATA_STRUCTURES_TASK\SOURCE.CPP
C:\USERS\TOMER\SOURCE\REPOS\DATA_STRUCTURES_TASK\DATA_STRUCTURES_TASK\DEBUG\VC141.PDB
C:\USERS\TOMER\SOURCE\REPOS\DATA_STRUCTURES_TASK\DATA_STRUCTURES_TASK\DEBUG\VC141.IDB
C:\USERS\TOMER\SOURCE\REPOS\DATA_STRUCTURES_TASK\DATA_STRUCTURES_TASK\DEBUG\SOURCE.OBJ
